…
    ## Warning: Removed 15 rows containing missing values (geom_point).

<img src="data_visualization_files/figure-gfm/unnamed-chunk-8-1.png" height="90%" />

## Use data manipulation

``` r
weather_df %>% 
  filter(name == "CentralPark_NY") %>% 
  mutate(tmax = tmax*(9 / 5) + 32,
         tmin = tmin*(9 / 5) + 32)
```

    ## # A tibble: 365 × 6
    ##    name           id          date        prcp  tmax  tmin
    ##    <chr>          <chr>       <date>     <dbl> <dbl> <dbl>
    ##  1 CentralPark_NY USW00094728 2017-01-01     0  48.0  39.9
    ##  2 CentralPark_NY USW00094728 2017-01-02    53  41    37.0
    ##  3 CentralPark_NY USW00094728 2017-01-03   147  43.0  39.0
    ##  4 CentralPark_NY USW00094728 2017-01-04     0  52.0  34.0
    ##  5 CentralPark_NY USW00094728 2017-01-05     0  34.0  27.1
    ##  6 CentralPark_NY USW00094728 2017-01-06    13  33.1  25.2
    ##  7 CentralPark_NY USW00094728 2017-01-07    81  26.2  20.1
    ##  8 CentralPark_NY USW00094728 2017-01-08     0  25.2  16.2
    ##  9 CentralPark_NY USW00094728 2017-01-09     0  23.2  14.2
    ## 10 CentralPark_NY USW00094728 2017-01-10     0  46.0  21.2
    ## # … with 355 more rows
…
